{
    "id": "86c378cd-79a6-4262-9a95-a8b85c988b09",
    "schema": "https://metadata.datadrivendiscovery.org/schemas/v0/pipeline.json",
    "created": "2019-06-06T22:14:00.994602Z",
    "inputs": [
        {
            "name": "inputs"
        }
    ],
    "outputs": [
        {
            "data": "steps.2.produce",
            "name": "Predictions"
        }
    ],
    "steps": [
        {
            "type": "PRIMITIVE",
            "primitive": {
                "id": "09f2eea8-667c-44b8-a955-6a153ba9ccc3",
                "version": "0.1.0",
                "python_path": "d3m.primitives.link_prediction.data_conversion.JHU",
                "name": "jhu.link_pred_graph_reader",
                "digest": "3b1ff564aca96abd19c7417111909dec3e72157834cc4c2ce5cfd2d06ba868d3"
            },
            "arguments": {
                "inputs": {
                    "type": "CONTAINER",
                    "data": "inputs.0"
                }
            },
            "outputs": [
                {
                    "id": "produce"
                }
            ]
        },
        {
            "type": "PRIMITIVE",
            "primitive": {
                "id": "b940ccbd-9e9b-3166-af50-210bfd79251b",
                "version": "0.1.0",
                "python_path": "d3m.primitives.data_transformation.adjacency_spectral_embedding.JHU",
                "name": "jhu.ase",
                "digest": "02a79607b76b6322dbaa4dcf2669ff20c5bc19d63f14da3a0b9836a2fbd6b090"
            },
            "arguments": {
                "inputs": {
                    "type": "CONTAINER",
                    "data": "steps.0.produce"
                }
            },
            "outputs": [
                {
                    "id": "produce"
                }
            ],
            "hyperparams": {
                "which_elbow": {
                    "type": "VALUE",
                    "data": 1
                },
                "max_dimension": {
                    "type": "VALUE",
                    "data": 2
                },
                "use_attributes": {
                    "type": "VALUE",
                    "data": false
                }
            }
        },
        {
            "type": "PRIMITIVE",
            "primitive": {
                "id": "25e97696-b96f-4f5c-8620-b340fe83414d",
                "version": "0.1.0",
                "python_path": "d3m.primitives.link_prediction.rank_classification.JHU",
                "name": "jhu.link_pred_rc",
                "digest": "5f152092953792e9c1413a30d61be9b740d7e9f209a6c1452eac850f68f33800"
            },
            "arguments": {
                "inputs": {
                    "type": "CONTAINER",
                    "data": "steps.1.produce"
                }
            },
            "outputs": [
                {
                    "id": "produce"
                }
            ]
        }
    ],
    "digest": "1e2cfeb1fbbef117c811b524c6a2edcc3d21ecdaa68b3824af3f835b269d122c"
}