{
    "created": "2020-05-26T14:30:39.415627Z",
    "digest": "f29bad42cc2ded950932592bb2b26a5ac9e4c8b6cdc787926259bb5b5e074b7b",
    "id": "9ef15eb3-0c1c-4f24-b80b-91ed32ff38fe",
    "inputs": [
        {
            "name": "input dataset"
        }
    ],
    "name": "/opt2/31_urbansound/31_urbansound_sou.mlp.b.pipeline.LOCAL.json",
    "outputs": [
        {
            "data": "steps.14.produce",
            "name": "output predictions"
        }
    ],
    "pipeline_rank": 1,
    "schema": "https://metadata.datadrivendiscovery.org/schemas/v0/pipeline.json",
    "steps": [
        {
            "arguments": {
                "inputs": {
                    "data": "inputs.0",
                    "type": "CONTAINER"
                }
            },
            "outputs": [
                {
                    "id": "produce"
                }
            ],
            "primitive": {
                "digest": "24c336e50ffad7b8de52beab771e7391f19beef31affa560a819d751bcc4923d",
                "id": "952b659c-d290-465b-9e89-160947e29c06",
                "name": "Targets Reader",
                "python_path": "d3m.primitives.data_preprocessing.targets_reader.TargetsReader",
                "version": "0.1.4"
            },
            "type": "PRIMITIVE"
        },
        {
            "arguments": {
                "inputs": {
                    "data": "inputs.0",
                    "type": "CONTAINER"
                }
            },
            "hyperparams": {
                "read_as_mono": {
                    "data": true,
                    "type": "VALUE"
                },
                "resampling_rate": {
                    "data": 16000.0,
                    "type": "VALUE"
                }
            },
            "outputs": [
                {
                    "id": "produce"
                }
            ],
            "primitive": {
                "digest": "ae9a57121300e83502bbd7b68ae0a55be61332631ebf118162acae551fe7b0fa",
                "id": "503e69a1-5fc4-4f14-912a-4b564cb1b171",
                "name": "Audio Reader",
                "python_path": "d3m.primitives.data_preprocessing.audio_reader.AudioReader",
                "version": "0.1.4"
            },
            "type": "PRIMITIVE"
        },
        {
            "arguments": {
                "inputs": {
                    "data": "steps.1.produce",
                    "type": "CONTAINER"
                }
            },
            "outputs": [
                {
                    "id": "produce"
                }
            ],
            "primitive": {
                "digest": "cfafc37601e5443c2f29c2cd882ff195803c99960a3b0bb34b13a2621dbc3428",
                "id": "35afd4db-e11d-4e2d-a780-9e123b752bd7",
                "name": "Channel Averager",
                "python_path": "d3m.primitives.data_preprocessing.channel_averager.ChannelAverager",
                "version": "0.1.4"
            },
            "type": "PRIMITIVE"
        },
        {
            "arguments": {
                "inputs": {
                    "data": "steps.2.produce",
                    "type": "CONTAINER"
                }
            },
            "hyperparams": {
                "level": {
                    "data": 0.0001,
                    "type": "VALUE"
                },
                "reseed": {
                    "data": true,
                    "type": "VALUE"
                }
            },
            "outputs": [
                {
                    "id": "produce"
                }
            ],
            "primitive": {
                "digest": "8b84393c0ef779418dfb145c4a50ebd638ef482e9d98c8ae9c8dc381b498f2cb",
                "id": "1ea935ec-e767-4a18-bbd5-b5f66855f4f3",
                "name": "Signal Dithering",
                "python_path": "d3m.primitives.data_preprocessing.signal_dither.SignalDither",
                "version": "0.1.4"
            },
            "type": "PRIMITIVE"
        },
        {
            "arguments": {
                "inputs": {
                    "data": "steps.3.produce",
                    "type": "CONTAINER"
                }
            },
            "hyperparams": {
                "flatten_output": {
                    "data": false,
                    "type": "VALUE"
                },
                "frame_length_s": {
                    "data": 0.025,
                    "type": "VALUE"
                },
                "frame_shift_s": {
                    "data": 0.01,
                    "type": "VALUE"
                }
            },
            "outputs": [
                {
                    "id": "produce"
                }
            ],
            "primitive": {
                "digest": "4f01d9c1c2b5a0414b6a031a9a8d0063ae2216b7b57120476c1e8db12cedef31",
                "id": "4d7160ef-ca70-4150-b513-36b90817ba45",
                "name": "Signal Framing",
                "python_path": "d3m.primitives.time_series_segmentation.signal_framer.SignalFramer",
                "version": "0.1.4"
            },
            "type": "PRIMITIVE"
        },
        {
            "arguments": {
                "inputs": {
                    "data": "steps.4.produce",
                    "type": "CONTAINER"
                }
            },
            "hyperparams": {
                "cep_lifter": {
                    "data": 22.0,
                    "type": "VALUE"
                },
                "frame_mean_norm": {
                    "data": false,
                    "type": "VALUE"
                },
                "nfft": {
                    "data": null,
                    "type": "VALUE"
                },
                "num_ceps": {
                    "data": 3,
                    "type": "VALUE"
                },
                "num_chans": {
                    "data": 20,
                    "type": "VALUE"
                },
                "preemcoef": {
                    "data": null,
                    "type": "VALUE"
                },
                "use_power": {
                    "data": false,
                    "type": "VALUE"
                }
            },
            "outputs": [
                {
                    "id": "produce"
                }
            ],
            "primitive": {
                "digest": "0d9c167686d7bb78c605f8d5093cf7af171ed1641fde67079e0adda913d57fed",
                "id": "a184a1d1-3187-4d1f-99c6-e1d5665c2c99",
                "name": "MFCC Feature Extraction",
                "python_path": "d3m.primitives.feature_extraction.signal_mfcc.SignalMFCC",
                "version": "0.1.4"
            },
            "type": "PRIMITIVE"
        },
        {
            "arguments": {
                "inputs": {
                    "data": "steps.5.produce",
                    "type": "CONTAINER"
                }
            },
            "hyperparams": {
                "seg_len": {
                    "data": 10,
                    "type": "VALUE"
                },
                "seg_shift": {
                    "data": null,
                    "type": "VALUE"
                }
            },
            "outputs": [
                {
                    "id": "produce"
                }
            ],
            "primitive": {
                "digest": "b096ac72c254d0e3e5764a92835f9576c4c509a4551bba704fede2591e5db89f",
                "id": "2a6f820a-3943-4bb7-a580-689a91c338f3",
                "name": "Uniform Segmentation",
                "python_path": "d3m.primitives.time_series_segmentation.uniform_segmentation.UniformSegmentation",
                "version": "0.1.4"
            },
            "type": "PRIMITIVE"
        },
        {
            "arguments": {
                "inputs": {
                    "data": "steps.6.produce",
                    "type": "CONTAINER"
                }
            },
            "hyperparams": {
                "deg": {
                    "data": 2,
                    "type": "VALUE"
                }
            },
            "outputs": [
                {
                    "id": "produce"
                }
            ],
            "primitive": {
                "digest": "dcf7a4bbbb92be36dd3e4e040ab4df95a5cb43a13d4374881913ee6f78fd70d0",
                "id": "7c1d88a3-2388-4ba8-97c6-aa0aa2673024",
                "name": "Segment Curve Fitter",
                "python_path": "d3m.primitives.data_transformation.segment_curve_fitter.SegmentCurveFitter",
                "version": "0.1.4"
            },
            "type": "PRIMITIVE"
        },
        {
            "arguments": {
                "inputs": {
                    "data": "steps.7.produce",
                    "type": "CONTAINER"
                }
            },
            "hyperparams": {
                "max_iter": {
                    "data": 300,
                    "type": "VALUE"
                },
                "n_clusters": {
                    "data": 512,
                    "type": "VALUE"
                },
                "n_init": {
                    "data": 10,
                    "type": "VALUE"
                }
            },
            "outputs": [
                {
                    "id": "produce"
                }
            ],
            "primitive": {
                "digest": "5a34d9ea9c3a4f31e36ef077429ecd3875868484989b47fd3d9d2a780de4db66",
                "id": "b358a1fd-8bf8-4991-935f-2f1806dae54d",
                "name": "Clustering for Curve Fitting",
                "python_path": "d3m.primitives.clustering.cluster_curve_fitting_kmeans.ClusterCurveFittingKMeans",
                "version": "0.1.4"
            },
            "type": "PRIMITIVE"
        },
        {
            "arguments": {
                "inputs": {
                    "data": "steps.8.produce",
                    "type": "CONTAINER"
                }
            },
            "hyperparams": {
                "flatten_output": {
                    "data": false,
                    "type": "VALUE"
                },
                "frame_length_s": {
                    "data": 1,
                    "type": "VALUE"
                },
                "frame_shift_s": {
                    "data": 1,
                    "type": "VALUE"
                }
            },
            "outputs": [
                {
                    "id": "produce"
                }
            ],
            "primitive": {
                "digest": "4f01d9c1c2b5a0414b6a031a9a8d0063ae2216b7b57120476c1e8db12cedef31",
                "id": "4d7160ef-ca70-4150-b513-36b90817ba45",
                "name": "Signal Framing",
                "python_path": "d3m.primitives.time_series_segmentation.signal_framer.SignalFramer",
                "version": "0.1.4"
            },
            "type": "PRIMITIVE"
        },
        {
            "arguments": {
                "inputs": {
                    "data": "steps.9.produce",
                    "type": "CONTAINER"
                }
            },
            "outputs": [
                {
                    "id": "produce"
                }
            ],
            "primitive": {
                "digest": "8938156fd081e0b1798e1f669fe90af42484e97bc5f4dfd49789f8ffd7ccb98a",
                "id": "bdcceba0-b6bd-4611-92de-225e3353f07d",
                "name": "Sequence to Bag-of-Tokens transformer",
                "python_path": "d3m.primitives.data_transformation.sequence_to_bag_of_tokens.SequenceToBagOfTokens",
                "version": "0.1.4"
            },
            "type": "PRIMITIVE"
        },
        {
            "arguments": {
                "inputs": {
                    "data": "steps.10.produce",
                    "type": "CONTAINER"
                }
            },
            "hyperparams": {
                "norm": {
                    "data": "l2",
                    "type": "VALUE"
                },
                "smooth_idf": {
                    "data": true,
                    "type": "VALUE"
                },
                "sublinear_tf": {
                    "data": true,
                    "type": "VALUE"
                },
                "use_idf": {
                    "data": true,
                    "type": "VALUE"
                }
            },
            "outputs": [
                {
                    "id": "produce"
                }
            ],
            "primitive": {
                "digest": "e7ebad63abc533c0adb02f363b845957d86b0e039ed3e09623277e2ff21bf589",
                "id": "fefcb78f-c2f5-4557-a23b-0910b2127769",
                "name": "Tfidf Transformer",
                "python_path": "d3m.primitives.feature_extraction.tfidf_vectorizer.BBNTfidfTransformer",
                "version": "0.1.4"
            },
            "type": "PRIMITIVE"
        },
        {
            "arguments": {
                "inputs": {
                    "data": "steps.11.produce",
                    "type": "CONTAINER"
                },
                "outputs": {
                    "data": "steps.0.produce",
                    "type": "CONTAINER"
                }
            },
            "hyperparams": {
                "activation": {
                    "data": "relu",
                    "type": "VALUE"
                },
                "add_index_columns": {
                    "data": true,
                    "type": "VALUE"
                },
                "alpha": {
                    "data": 0.0001,
                    "type": "VALUE"
                },
                "beta_1": {
                    "data": 0.9,
                    "type": "VALUE"
                },
                "beta_2": {
                    "data": 0.999,
                    "type": "VALUE"
                },
                "early_stopping": {
                    "data": true,
                    "type": "VALUE"
                },
                "epsilon": {
                    "data": 1e-08,
                    "type": "VALUE"
                },
                "exclude_columns": {
                    "data": [],
                    "type": "VALUE"
                },
                "hidden_layer_sizes": {
                    "data": {
                        "encoding": "pickle",
                        "value": "gANjY29weXJlZwpfcmVjb25zdHJ1Y3RvcgpxAGNkM20uY29udGFpbmVyLmxpc3QKTGlzdApxAWNidWlsdGlucwpsaXN0CnECXXEDKE0sAU0sAWWHcQRScQV9cQZYCAAAAG1ldGFkYXRhcQdjZDNtLm1ldGFkYXRhLmJhc2UKRGF0YU1ldGFkYXRhCnEIKYFxCX1xCihYEQAAAF9jdXJyZW50X21ldGFkYXRhcQtjZDNtLm1ldGFkYXRhLmJhc2UKTWV0YWRhdGFFbnRyeQpxDCmBcQ1OfXEOKFgIAAAAZWxlbWVudHNxD2NkM20udXRpbHMKcG1hcApxEH1xEYVxElJxE1gMAAAAYWxsX2VsZW1lbnRzcRROaAdjZnJvemVuZGljdApGcm96ZW5PcmRlcmVkRGljdApxFSmBcRZ9cRcoWAUAAABfZGljdHEYY2NvbGxlY3Rpb25zCk9yZGVyZWREaWN0CnEZKVJxGlgFAAAAX2hhc2hxG051YlgIAAAAaXNfZW1wdHlxHIhYEQAAAGlzX2VsZW1lbnRzX2VtcHR5cR2IdYZxHmJoG051YnNiLg=="
                    },
                    "type": "VALUE"
                },
                "learning_rate": {
                    "data": "constant",
                    "type": "VALUE"
                },
                "learning_rate_init": {
                    "data": 0.01,
                    "type": "VALUE"
                },
                "max_iter": {
                    "data": 200,
                    "type": "VALUE"
                },
                "return_result": {
                    "data": "replace",
                    "type": "VALUE"
                },
                "shuffle": {
                    "data": true,
                    "type": "VALUE"
                },
                "solver": {
                    "data": "adam",
                    "type": "VALUE"
                },
                "tol": {
                    "data": 0.0001,
                    "type": "VALUE"
                },
                "use_columns": {
                    "data": [],
                    "type": "VALUE"
                },
                "use_semantic_types": {
                    "data": false,
                    "type": "VALUE"
                },
                "warm_start": {
                    "data": false,
                    "type": "VALUE"
                }
            },
            "outputs": [
                {
                    "id": "produce"
                }
            ],
            "primitive": {
                "digest": "ed85c14e0e55e56afc7ba0b842ae3c7e2624a6ae7b90b0e5b89af5de296e622c",
                "id": "cdb18166-e2ca-4418-b5a4-fffbe98f7844",
                "name": "BBN MLP Classifier",
                "python_path": "d3m.primitives.classification.mlp.BBNMLPClassifier",
                "version": "0.1.4"
            },
            "type": "PRIMITIVE"
        },
        {
            "arguments": {
                "inputs": {
                    "data": "inputs.0",
                    "type": "CONTAINER"
                }
            },
            "outputs": [
                {
                    "id": "produce"
                }
            ],
            "primitive": {
                "digest": "8457eeb19b44f5b26a5fb721a51087d618962a35f0aff17f4ad25d341a2170f2",
                "id": "4b42ce1e-9b98-4a25-b68e-fad13311eb65",
                "name": "Extract a DataFrame from a Dataset",
                "python_path": "d3m.primitives.data_transformation.dataset_to_dataframe.Common",
                "version": "0.3.0"
            },
            "type": "PRIMITIVE"
        },
        {
            "arguments": {
                "inputs": {
                    "data": "steps.12.produce",
                    "type": "CONTAINER"
                },
                "reference": {
                    "data": "steps.13.produce",
                    "type": "CONTAINER"
                }
            },
            "outputs": [
                {
                    "id": "produce"
                }
            ],
            "primitive": {
                "digest": "9d75def19d2f401d3352d2d4b924269ddfca67d7bf998dc6bdd246d990ada0f4",
                "id": "8d38b340-f83f-4877-baaa-162f8e551736",
                "name": "Construct pipeline predictions output",
                "python_path": "d3m.primitives.data_transformation.construct_predictions.Common",
                "version": "0.3.0"
            },
            "type": "PRIMITIVE"
        }
    ]
}