{
    "created": "2019-06-17T21:21:25.865103Z",
    "digest": "3b89ba54a2b44265bf8c8a60c2edb05562b38db94811b22adf1577cd91818adb",
    "id": "91e90936-4423-4cd0-bdb5-b946348fa34a",
    "inputs": [
        {
            "name": "inputs"
        }
    ],
    "outputs": [
        {
            "data": "steps.9.produce",
            "name": "output predictions"
        }
    ],
    "schema": "https://metadata.datadrivendiscovery.org/schemas/v0/pipeline.json",
    "steps": [
        {
            "arguments": {
                "inputs": {
                    "data": "inputs.0",
                    "type": "CONTAINER"
                }
            },
            "outputs": [
                {
                    "id": "produce"
                }
            ],
            "primitive": {
                "digest": "e557fc176af67913ed241dbe793cf986439157cfe9c4a12f1aafcba3c07b8b6f",
                "id": "4b42ce1e-9b98-4a25-b68e-fad13311eb65",
                "name": "Extract a DataFrame from a Dataset",
                "python_path": "d3m.primitives.data_transformation.dataset_to_dataframe.Common",
                "version": "0.3.0"
            },
            "type": "PRIMITIVE"
        },
        {
            "arguments": {
                "inputs": {
                    "data": "steps.0.produce",
                    "type": "CONTAINER"
                }
            },
            "hyperparams": {
                "columns": {
                    "data": [
                        9
                    ],
                    "type": "VALUE"
                },
                "semantic_types": {
                    "data": [
                        "https://metadata.datadrivendiscovery.org/types/Attribute"
                    ],
                    "type": "VALUE"
                }
            },
            "outputs": [
                {
                    "id": "produce"
                }
            ],
            "primitive": {
                "digest": "a968b41c87cb6bc61fa79f1c8aee122ce5c6005d72d5a3b1386d68c669e49338",
                "id": "3002bc5b-fa47-4a3d-882e-a8b5f3d756aa",
                "name": "Remove semantic types from columns",
                "python_path": "d3m.primitives.data_transformation.remove_semantic_types.DataFrameCommon",
                "version": "0.1.0"
            },
            "type": "PRIMITIVE"
        },
        {
            "arguments": {
                "inputs": {
                    "data": "steps.1.produce",
                    "type": "CONTAINER"
                }
            },
            "outputs": [
                {
                    "id": "produce"
                }
            ],
            "primitive": {
                "digest": "7e16e2b1e559690e221de471826d7d1cd36698bc5140dc00f3c7a6c6b711c3b2",
                "id": "d510cb7a-1782-4f51-b44c-58f0236e47c7",
                "name": "Parses strings into their types",
                "python_path": "d3m.primitives.data_transformation.column_parser.DataFrameCommon",
                "version": "0.5.0"
            },
            "type": "PRIMITIVE"
        },
        {
            "arguments": {
                "inputs": {
                    "data": "steps.2.produce",
                    "type": "CONTAINER"
                }
            },
            "hyperparams": {
                "semantic_types": {
                    "data": [
                        "https://metadata.datadrivendiscovery.org/types/Attribute"
                    ],
                    "type": "VALUE"
                }
            },
            "outputs": [
                {
                    "id": "produce"
                }
            ],
            "primitive": {
                "digest": "d4fa27a3e215b89d2231d344ec0202e1b8e41ad322deb79c68fd6ca673eae3f7",
                "id": "4503a4c6-42f7-45a1-a1d4-ed69699cf5e1",
                "name": "Extracts columns by semantic type",
                "python_path": "d3m.primitives.data_transformation.extract_columns_by_semantic_types.DataFrameCommon",
                "version": "0.2.0"
            },
            "type": "PRIMITIVE"
        },
        {
            "arguments": {
                "inputs": {
                    "data": "steps.3.produce",
                    "type": "CONTAINER"
                }
            },
            "hyperparams": {
                "strategy": {
                    "data": "most_frequent",
                    "type": "VALUE"
                }
            },
            "outputs": [
                {
                    "id": "produce"
                }
            ],
            "primitive": {
                "digest": "1933705a04d8da0c4a34f4d4fc2ec4c9d826abaea53bc073b654588daaa5988d",
                "id": "d016df89-de62-3c53-87ed-c06bb6a23cde",
                "name": "sklearn.impute.SimpleImputer",
                "python_path": "d3m.primitives.data_cleaning.imputer.SKlearn",
                "version": "2019.6.7"
            },
            "type": "PRIMITIVE"
        },
        {
            "arguments": {
                "inputs": {
                    "data": "steps.4.produce",
                    "type": "CONTAINER"
                }
            },
            "outputs": [
                {
                    "id": "produce"
                }
            ],
            "primitive": {
                "digest": "addd6810debb6f465528c3b149d2210869a62f4b8f114c812a3918b3b9d08983",
                "id": "08d0579d-38da-307b-8b75-6a213ef2972e",
                "name": "sklearn.preprocessing.data.MinMaxScaler",
                "python_path": "d3m.primitives.data_preprocessing.min_max_scaler.SKlearn",
                "version": "2019.6.7"
            },
            "type": "PRIMITIVE"
        },
        {
            "arguments": {
                "inputs": {
                    "data": "steps.2.produce",
                    "type": "CONTAINER"
                }
            },
            "hyperparams": {
                "semantic_types": {
                    "data": [
                        "https://metadata.datadrivendiscovery.org/types/TrueTarget"
                    ],
                    "type": "VALUE"
                }
            },
            "outputs": [
                {
                    "id": "produce"
                }
            ],
            "primitive": {
                "digest": "d4fa27a3e215b89d2231d344ec0202e1b8e41ad322deb79c68fd6ca673eae3f7",
                "id": "4503a4c6-42f7-45a1-a1d4-ed69699cf5e1",
                "name": "Extracts columns by semantic type",
                "python_path": "d3m.primitives.data_transformation.extract_columns_by_semantic_types.DataFrameCommon",
                "version": "0.2.0"
            },
            "type": "PRIMITIVE"
        },
        {
            "arguments": {
                "inputs": {
                    "data": "steps.5.produce",
                    "type": "CONTAINER"
                },
                "outputs": {
                    "data": "steps.6.produce",
                    "type": "CONTAINER"
                }
            },
            "hyperparams": {
                "nbins": {
                    "data": 15,
                    "type": "VALUE"
                }
            },
            "outputs": [
                {
                    "id": "produce"
                }
            ],
            "primitive": {
                "digest": "83c3362849a6f1597106fbbd0be6a966bc40ab83fd4bf17e284cabbb3a7c31aa",
                "id": "215f554e-15f4-4174-9743-03cddad91dc4",
                "name": "S2TMBplus feature selector",
                "python_path": "d3m.primitives.feature_selection.score_based_markov_blanket.RPI",
                "version": "v2019.6"
            },
            "type": "PRIMITIVE"
        },
        {
            "arguments": {
                "inputs": {
                    "data": "steps.7.produce",
                    "type": "CONTAINER"
                },
                "outputs": {
                    "data": "steps.6.produce",
                    "type": "CONTAINER"
                }
            },
            "hyperparams": {
                "n_estimators": {
                    "data": 5,
                    "type": "VALUE"
                }
            },
            "outputs": [
                {
                    "id": "produce"
                }
            ],
            "primitive": {
                "digest": "729577744a505b8f8075b2be332322dbc6721b513f105cc029a49c8351053e6b",
                "id": "1b2a32a6-0ec5-3ca0-9386-b8b1f1b831d1",
                "name": "sklearn.ensemble.bagging.BaggingClassifier",
                "python_path": "d3m.primitives.classification.bagging.SKlearn",
                "version": "2019.6.7"
            },
            "type": "PRIMITIVE"
        },
        {
            "arguments": {
                "inputs": {
                    "data": "steps.8.produce",
                    "type": "CONTAINER"
                },
                "reference": {
                    "data": "steps.0.produce",
                    "type": "CONTAINER"
                }
            },
            "outputs": [
                {
                    "id": "produce"
                }
            ],
            "primitive": {
                "digest": "077921b0d6cee9bbda9494bc60c8b48f8287db8d0bff674056a7c9e5cc92ebb9",
                "id": "8d38b340-f83f-4877-baaa-162f8e551736",
                "name": "Construct pipeline predictions output",
                "python_path": "d3m.primitives.data_transformation.construct_predictions.DataFrameCommon",
                "version": "0.3.0"
            },
            "type": "PRIMITIVE"
        }
    ]
}