{
    "id": "77c17d29-8be4-4f9b-b3d4-09be86426ac3",
    "schema": "https://metadata.datadrivendiscovery.org/schemas/v0/pipeline.json",
    "created": "2021-05-17T21:15:09.769381Z",
    "inputs": [
        {
            "name": "inputs"
        }
    ],
    "outputs": [
        {
            "data": "steps.1.produce",
            "name": "output"
        }
    ],
    "steps": [
        {
            "type": "PRIMITIVE",
            "primitive": {
                "id": "ae0797506-ea7b-4a7f-a7e4-2f91e2082f05",
                "version": "0.6.0",
                "python_path": "d3m.primitives.data_transformation.load_graphs.DistilGraphLoader",
                "name": "Load graphs into a parseable object"
            },
            "arguments": {
                "inputs": {
                    "type": "CONTAINER",
                    "data": "inputs.0"
                }
            },
            "outputs": [
                {
                    "id": "produce"
                },
                {
                    "id": "produce_target"
                }
            ]
        },
        {
            "type": "PRIMITIVE",
            "primitive": {
                "id": "8baea8e6-9d3a-46d7-acf1-04fd593dcd37",
                "version": "0.6.0",
                "python_path": "d3m.primitives.graph_matching.seeded_graph_matching.DistilSeededGraphMatcher",
                "name": "SeededGraphMatcher"
            },
            "arguments": {
                "inputs": {
                    "type": "CONTAINER",
                    "data": "steps.0.produce"
                },
                "outputs": {
                    "type": "CONTAINER",
                    "data": "steps.0.produce_target"
                }
            },
            "outputs": [
                {
                    "id": "produce"
                }
            ],
            "hyperparams": {
                "metric": {
                    "type": "VALUE",
                    "data": "accuracy"
                }
            }
        }
    ],
    "digest": "e2ad5855361f357e5609b3ce4c3da47c9525ddab397cba302d260338fd8e823e"
}
