{
    "id": "1c2a6092-22fe-4f17-9b85-b580d583cab6",
    "schema": "https://metadata.datadrivendiscovery.org/schemas/v0/pipeline.json",
    "created": "2019-05-06T20:07:43.399356Z",
    "context": "TESTING",
    "inputs": [
        {
            "name": "inputs"
        }
    ],
    "outputs": [
        {
            "data": "steps.0.produce",
            "name": "results"
        }
    ],
    "steps": [
        {
            "type": "PRIMITIVE",
            "primitive": {
                "id": "4d989759-affd-4a51-a4e6-1a05a5c1d1c8",
                "version": "1.3.9",
                "python_path": "d3m.primitives.classification.general_relational_dataset.GeneralRelationalDataset",
                "name": "General Relational Dataset"
            },
            "arguments": {
                "inputs": {
                    "type": "CONTAINER",
                    "data": "inputs.0"
                }
            },
            "outputs": [
                {
                    "id": "produce"
                }
            ]
        }
    ]
}