{
  "created": "2020-11-19T16:33:07.835192Z",
  "digest": "835189b1f34cfa90b495b89aea8e3fe71b7d6b4ee2ab113fbccd54b0cc4c06ab",
  "id": "47939611-baae-461b-a8e0-cb2c3b421279",
  "inputs": [
    {
      "name": "inputs"
    }
  ],
  "outputs": [
    {
      "data": "steps.8.produce",
      "name": "output predictions"
    }
  ],
  "schema": "https://metadata.datadrivendiscovery.org/schemas/v0/pipeline.json",
  "steps": [
    {
      "arguments": {
        "inputs": {
          "data": "inputs.0",
          "type": "CONTAINER"
        }
      },
      "outputs": [
        {
          "id": "produce"
        }
      ],
      "primitive": {
        "digest": "226f4fc623aecc4d3bc31ee4b14148c754febef9352f0fa4f21795417609ef7b",
        "id": "4b42ce1e-9b98-4a25-b68e-fad13311eb65",
        "name": "Extract a DataFrame from a Dataset",
        "python_path": "d3m.primitives.data_transformation.dataset_to_dataframe.Common",
        "version": "0.3.0"
      },
      "type": "PRIMITIVE"
    },
    {
      "arguments": {
        "inputs": {
          "data": "steps.0.produce",
          "type": "CONTAINER"
        }
      },
      "hyperparams": {
        "categorical_max_absolute_distinct_values": {
          "data": {
            "case": "unlimited",
            "value": null
          },
          "type": "VALUE"
        },
        "categorical_max_ratio_distinct_values": {
          "data": 1,
          "type": "VALUE"
        }
      },
      "outputs": [
        {
          "id": "produce"
        }
      ],
      "primitive": {
        "digest": "65efbb29d9437480f17c35e7eb1cf4a9007728f3bc256e9aad3ec5619a069cf2",
        "id": "e193afa1-b45e-4d29-918f-5bb1fa3b88a7",
        "name": "Determine missing semantic types for columns automatically",
        "python_path": "d3m.primitives.schema_discovery.profiler.Common",
        "version": "0.2.0"
      },
      "type": "PRIMITIVE"
    },
    {
      "arguments": {
        "inputs": {
          "data": "steps.1.produce",
          "type": "CONTAINER"
        }
      },
      "outputs": [
        {
          "id": "produce"
        }
      ],
      "primitive": {
        "digest": "88800350c518c1f2ac288871be5fb6a3826c248211dec5323e8651da3a8a5078",
        "id": "79674d68-9b93-4359-b385-7b5f60645b06",
        "name": "Extracts columns by structural type",
        "python_path": "d3m.primitives.data_transformation.extract_columns_by_structural_types.Common",
        "version": "0.1.0"
      },
      "type": "PRIMITIVE"
    },
    {
      "arguments": {
        "inputs": {
          "data": "steps.2.produce",
          "type": "CONTAINER"
        }
      },
      "outputs": [
        {
          "id": "produce"
        }
      ],
      "primitive": {
        "digest": "02eacfd1ad475b0d668dbcd3cceb516164746e6d772dd4dac39d16cfca27e740",
        "id": "d510cb7a-1782-4f51-b44c-58f0236e47c7",
        "name": "Parses strings into their types",
        "python_path": "d3m.primitives.data_transformation.column_parser.Common",
        "version": "0.6.0"
      },
      "type": "PRIMITIVE"
    },
    {
      "arguments": {
        "inputs": {
          "data": "steps.3.produce",
          "type": "CONTAINER"
        }
      },
      "hyperparams": {
        "semantic_types": {
          "data": [
            "https://metadata.datadrivendiscovery.org/types/Attribute"
          ],
          "type": "VALUE"
        }
      },
      "outputs": [
        {
          "id": "produce"
        }
      ],
      "primitive": {
        "digest": "6411d3d7a26c1d03636bb906f551794fbf059bbe81ac20fc1f14cc1f963f367c",
        "id": "4503a4c6-42f7-45a1-a1d4-ed69699cf5e1",
        "name": "Extracts columns by semantic type",
        "python_path": "d3m.primitives.data_transformation.extract_columns_by_semantic_types.Common",
        "version": "0.4.0"
      },
      "type": "PRIMITIVE"
    },
    {
      "arguments": {
        "inputs": {
          "data": "steps.3.produce",
          "type": "CONTAINER"
        }
      },
      "hyperparams": {
        "semantic_types": {
          "data": [
            "https://metadata.datadrivendiscovery.org/types/TrueTarget"
          ],
          "type": "VALUE"
        }
      },
      "outputs": [
        {
          "id": "produce"
        }
      ],
      "primitive": {
        "digest": "6411d3d7a26c1d03636bb906f551794fbf059bbe81ac20fc1f14cc1f963f367c",
        "id": "4503a4c6-42f7-45a1-a1d4-ed69699cf5e1",
        "name": "Extracts columns by semantic type",
        "python_path": "d3m.primitives.data_transformation.extract_columns_by_semantic_types.Common",
        "version": "0.4.0"
      },
      "type": "PRIMITIVE"
    },
    {
      "arguments": {
        "inputs": {
          "data": "steps.4.produce",
          "type": "CONTAINER"
        }
      },
      "outputs": [
        {
          "id": "produce"
        }
      ],
      "primitive": {
        "digest": "43fb48a183933b408dc50035882c2259c5e99aa0c6c409198f6b312cec998a16",
        "id": "d016df89-de62-3c53-87ed-c06bb6a23cde",
        "name": "sklearn.impute.SimpleImputer",
        "python_path": "d3m.primitives.data_cleaning.imputer.SKlearn",
        "version": "2020.11.16"
      },
      "type": "PRIMITIVE"
    },
    {
      "arguments": {
        "inputs": {
          "data": "steps.6.produce",
          "type": "CONTAINER"
        },
        "outputs": {
          "data": "steps.5.produce",
          "type": "CONTAINER"
        }
      },
      "outputs": [
        {
          "id": "produce"
        }
      ],
      "primitive": {
        "digest": "7ef0ead0509fb516b452ef2f3276a3ae98abb7a2f505619774bff934ae339d62",
        "id": "c8a28f02-ef4a-35a8-87f1-cf79980f5c3e",
        "name": "sklearn.ensemble.forest.ExtraTreesClassifier",
        "python_path": "d3m.primitives.classification.extra_trees.SKlearn",
        "version": "2020.11.16"
      },
      "type": "PRIMITIVE"
    },
    {
      "arguments": {
        "inputs": {
          "data": "steps.7.produce",
          "type": "CONTAINER"
        },
        "reference": {
          "data": "steps.0.produce",
          "type": "CONTAINER"
        }
      },
      "outputs": [
        {
          "id": "produce"
        }
      ],
      "primitive": {
        "digest": "f4f0c95603b2dce24eabafc5d55f1a82dfcab24014ae85d200b8a35b3e3186a5",
        "id": "8d38b340-f83f-4877-baaa-162f8e551736",
        "name": "Construct pipeline predictions output",
        "python_path": "d3m.primitives.data_transformation.construct_predictions.Common",
        "version": "0.3.0"
      },
      "type": "PRIMITIVE"
    }
  ]
}